{
    "ref": "fedora-atomic/f23/x86_64/docker-host",

    "repos": ["fedora-23", "fedora-23-updates"],

    "selinux": true,

    "documentation": false,

    "automatic_version_prefix": "23",

    "initramfs-args": ["--no-hostonly", "--add", "iscsi"],

    "install-langs": ["en_US"],

    "postprocess-script": "treecompose-post.sh",

    "etc-group-members": ["wheel", "docker"],

    "ignore-removed-users": ["root"],
    "ignore-removed-groups": ["root"],
    "check-passwd": { "type": "file", "filename": "passwd" },
    "check-groups": { "type": "file", "filename": "group" },

    "packages": ["atomic",
		 "glibc", "nss-altfiles", "shadow-utils",
		 "sssd-client", "libsss_sudo",
		 "fedora-release",
		 "dracut-config-generic", "kernel",
		 "dracut-network",
		 "dracut-live",
		 "rpm-ostree", "lvm2",
		 "cryptsetup",
		 "authconfig",
		 "btrfs-progs", "e2fsprogs", "xfsprogs",
		 "grub2", "grub2-efi", "ostree-grub2",
		 "efibootmgr", "shim",
		 "gnupg2",
		 "basesystem",
		 "python",
		 "bash",
		 "xz", "gzip", "bzip2",
		 "coreutils",
		 "which",
		 "nfs-utils",
		 "curl",
		 "iptables-services",
		 "NetworkManager",
		 "hostname", "initscripts", "iproute", "iputils", "less",
		 "sos",
		 "openssh-clients", "openssh-server", "passwd", "plymouth",
		 "policycoreutils", "procps-ng", "rootfiles", "rpm",
		 "selinux-policy-targeted", "setup", "shadow-utils",
		 "sudo", "systemd", "util-linux", "vim-minimal",
		 "less",
		 "tar",
		 "cloud-init",
		 "cloud-utils-growpart",
		 "rsync",
		 "bash-completion",
		 "tmux", "screen",
		 "strace", "lsof", "tcpdump", "nmap-ncat",
		 "policycoreutils-python",
		 "policycoreutils-python-utils",
		 "setools-console",
		 "audit",
		 "cockpit-bridge",
		 "cockpit-shell",
		 "cockpit-docker",
		 "cockpit-networkmanager",
		 "cockpit-ostree",
		 "kubernetes", "etcd",
		 "flannel",
		 "docker",
		 "python-docker-py",
		 "iscsi-initiator-utils",
		 "oddjob-mkhomedir",
		 "atomic-devmode",
		 "runc"],

    "default_target": "multi-user.target",

    "units": ["docker.service", "cockpit.socket", "docker-storage-setup.service"]
}
